{
  "version": "0.1",
  "title": "Function vs Relation",
  "id": 7,
  "author": 0,
  "type": "MC",
  "text": "What is the main difference between functions and relations",
  "choices": [
    "All functions are relations",
    "All relations are functions",
    "The inverse of a function always exists",
    "The inverse of a relation always exists"
  ],
  "correct": [
    0,
    3
  ]
}