{
  "version": "0.1",
  "title": "Properties of relations",
  "id": 2,
  "author": 0,
  "type": "MC",
  "text": "The relation $p = \set{(i, j) | i, j \in \mathbb{N} \wedge i \equiv_3 j}$ is?",
  "choices": [
    "reflexive",
    "symmetric",
    "antisymmetric",
    "transitive"
  ],
  "correct": [
    0,
    1,
    3
  ]
}